# 3ds Max Wavefront OBJ Exporter v0.97b - (c)2007 guruware
# File Created: 17.04.2020 22:18:48

mtllib LampPost.mtl

#
# object Box001
#

v  -12.2426 0.0000 12.2426
v  -12.2426 0.0000 -12.2426
v  12.2426 0.0000 -12.2426
v  12.2426 0.0000 12.2426
v  -12.2426 200.0000 12.2426
v  12.2426 200.0000 12.2426
v  12.2426 200.0000 -12.2426
v  -12.2426 200.0000 -12.2426
v  -101.3770 187.8005 7.0964
v  -101.3770 187.8005 -7.0964
v  -101.3770 162.9278 -7.0964
v  -101.3770 162.9278 7.0964
v  22.1892 187.8005 7.0964
v  22.1892 162.9278 7.0964
v  22.1892 162.9278 -7.0964
v  22.1892 187.8005 -7.0964
v  -34.8754 164.0339 5.2291
v  -53.9925 164.2969 5.2291
v  -7.9943 125.6999 5.2291
v  -7.8994 141.3984 5.2291
v  -53.9925 164.2969 -5.2291
v  -7.9943 125.6999 -5.2291
v  -34.8754 164.0339 -5.2291
v  -7.8994 141.3984 -5.2291
# 24 vertices

vn -0.5774 -0.5774 0.5774
vn -0.5774 -0.5774 -0.5774
vn 0.5774 -0.5774 -0.5774
vn 0.5774 -0.5774 0.5774
vn -0.5774 0.5774 0.5774
vn 0.5774 0.5774 0.5774
vn 0.5774 0.5774 -0.5774
vn -0.5774 0.5774 -0.5774
vn 0.3462 0.4126 0.8426
vn -0.5893 -0.7023 0.3994
vn -0.5610 -0.6685 0.4882
vn 0.3665 0.4368 0.8215
vn -0.5893 -0.7023 -0.3994
vn -0.5610 -0.6685 -0.4882
vn 0.3462 0.4126 -0.8426
vn 0.3665 0.4368 -0.8215
# 16 vertex normals

vt 0.2286 0.8259 0.0000
vt 0.2286 0.9227 0.0000
vt 0.1318 0.9227 0.0000
vt 0.1318 0.8259 0.0000
vt 0.0200 0.8259 0.0000
vt 0.1168 0.8259 0.0000
vt 0.1168 0.9227 0.0000
vt 0.0200 0.9227 0.0000
vt 0.1318 0.0200 0.0000
vt 0.2286 0.0200 0.0000
vt 0.2286 0.8109 0.0000
vt 0.1318 0.8109 0.0000
vt 0.2436 0.0200 0.0000
vt 0.3404 0.0200 0.0000
vt 0.3404 0.8109 0.0000
vt 0.2436 0.8109 0.0000
vt 0.3554 0.0200 0.0000
vt 0.4522 0.0200 0.0000
vt 0.4522 0.8109 0.0000
vt 0.3554 0.8109 0.0000
vt 0.0200 0.0200 0.0000
vt 0.1168 0.0200 0.0000
vt 0.1168 0.8109 0.0000
vt 0.0200 0.8109 0.0000
vt 0.9530 0.2965 0.0000
vt 0.9530 0.3527 0.0000
vt 0.8546 0.3527 0.0000
vt 0.8546 0.2965 0.0000
vt 0.8546 0.3676 0.0000
vt 0.9530 0.3676 0.0000
vt 0.9530 0.4238 0.0000
vt 0.8546 0.4238 0.0000
vt 0.4672 0.0200 0.0000
vt 0.5656 0.0200 0.0000
vt 0.5656 0.5086 0.0000
vt 0.4672 0.5086 0.0000
vt 0.7650 0.0200 0.0000
vt 0.8211 0.0200 0.0000
vt 0.8211 0.5086 0.0000
vt 0.7650 0.5086 0.0000
vt 0.5805 0.0200 0.0000
vt 0.6789 0.0200 0.0000
vt 0.6789 0.5086 0.0000
vt 0.5805 0.5086 0.0000
vt 0.6939 0.0200 0.0000
vt 0.7500 0.0200 0.0000
vt 0.7500 0.5086 0.0000
vt 0.6939 0.5086 0.0000
vt 0.8322 0.0799 0.0000
vt 0.8802 0.0225 0.0000
vt 0.8802 0.2599 0.0000
vt 0.8322 0.2191 0.0000
vt 0.4672 0.5236 0.0000
vt 0.5086 0.5236 0.0000
vt 0.5086 0.7611 0.0000
vt 0.4672 0.7611 0.0000
vt 0.8993 0.0232 0.0000
vt 0.9473 0.0806 0.0000
vt 0.9473 0.2198 0.0000
vt 0.8993 0.2606 0.0000
vt 0.2436 0.8259 0.0000
vt 0.2850 0.8259 0.0000
vt 0.2850 0.9651 0.0000
vt 0.2436 0.9651 0.0000
# 64 texture coords

o Box001
g Box001
usemtl wire_214229166
s 2
f 1/1/1 2/2/2 3/3/3 4/4/4 
s 4
f 5/5/5 6/6/6 7/7/7 8/8/8 
s 8
f 1/9/1 4/10/4 6/11/6 5/12/5 
s 16
f 4/13/4 3/14/3 7/15/7 6/16/6 
s 32
f 3/17/3 2/18/2 8/19/8 7/20/7 
s 64
f 2/21/2 1/22/1 5/23/5 8/24/8 
s 2
f 9/25/5 10/26/8 11/27/2 12/28/1 
s 4
f 13/29/6 14/30/4 15/31/3 16/32/7 
s 8
f 9/33/5 12/34/1 14/35/4 13/36/6 
s 16
f 12/37/1 11/38/2 15/39/3 14/40/4 
s 32
f 11/41/2 10/42/8 16/43/7 15/44/3 
s 64
f 10/45/8 9/46/5 13/47/6 16/48/7 
s 8
f 17/49/9 18/50/10 19/51/11 20/52/12 
s 16
f 18/53/10 21/54/13 22/55/14 19/56/11 
s 32
f 21/57/13 23/58/15 24/59/16 22/60/14 
s 64
f 23/61/15 17/62/9 20/63/12 24/64/16 
# 16 polygons

