%YAML 1.1
%TAG !u! tag:unity3d.com,2011:
--- !u!65 &4648885518213209735
BoxCollider:
  m_ObjectHideFlags: 0
  m_CorrespondingSourceObject: {fileID: 0}
  m_PrefabInstance: {fileID: 0}
  m_PrefabAsset: {fileID: 0}
  m_GameObject: {fileID: 4190675384536970677}
  m_Material: {fileID: 0}
  m_IsTrigger: 0
  m_Enabled: 1
  serializedVersion: 2
  m_Size: {x: 0.22014345, y: 0.22417687, z: 1.7474339}
  m_Center: {x: 0, y: 0, z: 0.87222385}
--- !u!65 &5092678216272188363
BoxCollider:
  m_ObjectHideFlags: 0
  m_CorrespondingSourceObject: {fileID: 0}
  m_PrefabInstance: {fileID: 0}
  m_PrefabAsset: {fileID: 0}
  m_GameObject: {fileID: 5882042090722014684}
  m_Material: {fileID: 0}
  m_IsTrigger: 0
  m_Enabled: 1
  serializedVersion: 2
  m_Size: {x: 0.22014345, y: 0.22417687, z: 1.7474339}
  m_Center: {x: 0, y: 0, z: 0.87222385}
--- !u!1001 &1811388561112418946
PrefabInstance:
  m_ObjectHideFlags: 0
  serializedVersion: 2
  m_Modification:
    m_TransformParent: {fileID: 0}
    m_Modifications:
    - target: {fileID: -927199367670048503, guid: 5b6989334cecdd24bace6ae6b1be726b,
        type: 3}
      propertyPath: m_Name
      value: FenceBroken Variant
      objectReference: {fileID: 0}
    - target: {fileID: -6698227844113006793, guid: 5b6989334cecdd24bace6ae6b1be726b,
        type: 3}
      propertyPath: m_Layer
      value: 28
      objectReference: {fileID: 0}
    - target: {fileID: 5224859813689589598, guid: 5b6989334cecdd24bace6ae6b1be726b,
        type: 3}
      propertyPath: m_Layer
      value: 28
      objectReference: {fileID: 0}
    - target: {fileID: -4216859302048453862, guid: 5b6989334cecdd24bace6ae6b1be726b,
        type: 3}
      propertyPath: m_LocalPosition.x
      value: 0
      objectReference: {fileID: 0}
    - target: {fileID: -4216859302048453862, guid: 5b6989334cecdd24bace6ae6b1be726b,
        type: 3}
      propertyPath: m_LocalPosition.y
      value: 0
      objectReference: {fileID: 0}
    - target: {fileID: -4216859302048453862, guid: 5b6989334cecdd24bace6ae6b1be726b,
        type: 3}
      propertyPath: m_LocalPosition.z
      value: 0
      objectReference: {fileID: 0}
    - target: {fileID: -4216859302048453862, guid: 5b6989334cecdd24bace6ae6b1be726b,
        type: 3}
      propertyPath: m_LocalRotation.x
      value: 0
      objectReference: {fileID: 0}
    - target: {fileID: -4216859302048453862, guid: 5b6989334cecdd24bace6ae6b1be726b,
        type: 3}
      propertyPath: m_LocalRotation.y
      value: 0
      objectReference: {fileID: 0}
    - target: {fileID: -4216859302048453862, guid: 5b6989334cecdd24bace6ae6b1be726b,
        type: 3}
      propertyPath: m_LocalRotation.z
      value: 0
      objectReference: {fileID: 0}
    - target: {fileID: -4216859302048453862, guid: 5b6989334cecdd24bace6ae6b1be726b,
        type: 3}
      propertyPath: m_LocalRotation.w
      value: 1
      objectReference: {fileID: 0}
    - target: {fileID: -4216859302048453862, guid: 5b6989334cecdd24bace6ae6b1be726b,
        type: 3}
      propertyPath: m_RootOrder
      value: 0
      objectReference: {fileID: 0}
    - target: {fileID: -4216859302048453862, guid: 5b6989334cecdd24bace6ae6b1be726b,
        type: 3}
      propertyPath: m_LocalEulerAnglesHint.x
      value: 0
      objectReference: {fileID: 0}
    - target: {fileID: -4216859302048453862, guid: 5b6989334cecdd24bace6ae6b1be726b,
        type: 3}
      propertyPath: m_LocalEulerAnglesHint.y
      value: 0
      objectReference: {fileID: 0}
    - target: {fileID: -4216859302048453862, guid: 5b6989334cecdd24bace6ae6b1be726b,
        type: 3}
      propertyPath: m_LocalEulerAnglesHint.z
      value: 0
      objectReference: {fileID: 0}
    m_RemovedComponents: []
  m_SourcePrefab: {fileID: 100100000, guid: 5b6989334cecdd24bace6ae6b1be726b, type: 3}
--- !u!1 &4190675384536970677 stripped
GameObject:
  m_CorrespondingSourceObject: {fileID: -6698227844113006793, guid: 5b6989334cecdd24bace6ae6b1be726b,
    type: 3}
  m_PrefabInstance: {fileID: 1811388561112418946}
  m_PrefabAsset: {fileID: 0}
--- !u!1 &5882042090722014684 stripped
GameObject:
  m_CorrespondingSourceObject: {fileID: 5224859813689589598, guid: 5b6989334cecdd24bace6ae6b1be726b,
    type: 3}
  m_PrefabInstance: {fileID: 1811388561112418946}
  m_PrefabAsset: {fileID: 0}
