%YAML 1.1
%TAG !u! tag:unity3d.com,2011:
--- !u!1 &3956410327094769757
GameObject:
  m_ObjectHideFlags: 0
  m_CorrespondingSourceObject: {fileID: 0}
  m_PrefabInstance: {fileID: 0}
  m_PrefabAsset: {fileID: 0}
  serializedVersion: 6
  m_Component:
  - component: {fileID: 7625698732126919836}
  m_Layer: 11
  m_Name: Bamboo_small1
  m_TagString: Untagged
  m_Icon: {fileID: 0}
  m_NavMeshLayer: 0
  m_StaticEditorFlags: 21
  m_IsActive: 1
--- !u!4 &7625698732126919836
Transform:
  m_ObjectHideFlags: 0
  m_CorrespondingSourceObject: {fileID: 0}
  m_PrefabInstance: {fileID: 0}
  m_PrefabAsset: {fileID: 0}
  m_GameObject: {fileID: 3956410327094769757}
  m_LocalRotation: {x: 0, y: 0, z: 0, w: 1}
  m_LocalPosition: {x: 0, y: 0, z: 0}
  m_LocalScale: {x: 1, y: 1, z: 1}
  m_Children:
  - {fileID: 7395892792353921709}
  m_Father: {fileID: 0}
  m_RootOrder: 0
  m_LocalEulerAnglesHint: {x: 0, y: 0, z: 0}
--- !u!136 &6974716719712009185
CapsuleCollider:
  m_ObjectHideFlags: 0
  m_CorrespondingSourceObject: {fileID: 0}
  m_PrefabInstance: {fileID: 0}
  m_PrefabAsset: {fileID: 0}
  m_GameObject: {fileID: 5834453551752308926}
  m_Material: {fileID: 0}
  m_IsTrigger: 0
  m_Enabled: 1
  m_Radius: 0.069773
  m_Height: 0.9174406
  m_Direction: 2
  m_Center: {x: 0.003820777, y: 0.0060824156, z: 0.44678786}
--- !u!1001 &2583317420327907767
PrefabInstance:
  m_ObjectHideFlags: 0
  serializedVersion: 2
  m_Modification:
    m_TransformParent: {fileID: 7625698732126919836}
    m_Modifications:
    - target: {fileID: -4216859302048453862, guid: 87775287766ddcd4fab2e3e3a85b379c,
        type: 3}
      propertyPath: m_LocalPosition.x
      value: -0
      objectReference: {fileID: 0}
    - target: {fileID: -4216859302048453862, guid: 87775287766ddcd4fab2e3e3a85b379c,
        type: 3}
      propertyPath: m_LocalPosition.y
      value: 0
      objectReference: {fileID: 0}
    - target: {fileID: -4216859302048453862, guid: 87775287766ddcd4fab2e3e3a85b379c,
        type: 3}
      propertyPath: m_LocalPosition.z
      value: 0
      objectReference: {fileID: 0}
    - target: {fileID: -4216859302048453862, guid: 87775287766ddcd4fab2e3e3a85b379c,
        type: 3}
      propertyPath: m_LocalRotation.x
      value: -0.7071068
      objectReference: {fileID: 0}
    - target: {fileID: -4216859302048453862, guid: 87775287766ddcd4fab2e3e3a85b379c,
        type: 3}
      propertyPath: m_LocalRotation.y
      value: 0
      objectReference: {fileID: 0}
    - target: {fileID: -4216859302048453862, guid: 87775287766ddcd4fab2e3e3a85b379c,
        type: 3}
      propertyPath: m_LocalRotation.z
      value: -0
      objectReference: {fileID: 0}
    - target: {fileID: -4216859302048453862, guid: 87775287766ddcd4fab2e3e3a85b379c,
        type: 3}
      propertyPath: m_LocalRotation.w
      value: 0.7071068
      objectReference: {fileID: 0}
    - target: {fileID: -4216859302048453862, guid: 87775287766ddcd4fab2e3e3a85b379c,
        type: 3}
      propertyPath: m_RootOrder
      value: 0
      objectReference: {fileID: 0}
    - target: {fileID: -4216859302048453862, guid: 87775287766ddcd4fab2e3e3a85b379c,
        type: 3}
      propertyPath: m_LocalEulerAnglesHint.x
      value: 0
      objectReference: {fileID: 0}
    - target: {fileID: -4216859302048453862, guid: 87775287766ddcd4fab2e3e3a85b379c,
        type: 3}
      propertyPath: m_LocalEulerAnglesHint.y
      value: 0
      objectReference: {fileID: 0}
    - target: {fileID: -4216859302048453862, guid: 87775287766ddcd4fab2e3e3a85b379c,
        type: 3}
      propertyPath: m_LocalEulerAnglesHint.z
      value: 0
      objectReference: {fileID: 0}
    - target: {fileID: -927199367670048503, guid: 87775287766ddcd4fab2e3e3a85b379c,
        type: 3}
      propertyPath: m_Name
      value: bamboo_small01
      objectReference: {fileID: 0}
    - target: {fileID: -927199367670048503, guid: 87775287766ddcd4fab2e3e3a85b379c,
        type: 3}
      propertyPath: m_Layer
      value: 11
      objectReference: {fileID: 0}
    - target: {fileID: -927199367670048503, guid: 87775287766ddcd4fab2e3e3a85b379c,
        type: 3}
      propertyPath: m_StaticEditorFlags
      value: 21
      objectReference: {fileID: 0}
    - target: {fileID: -1504981713932161579, guid: 87775287766ddcd4fab2e3e3a85b379c,
        type: 3}
      propertyPath: m_Materials.Array.data[0]
      value: 
      objectReference: {fileID: 2100000, guid: 4191acadaf9521345a39feb1cc10f358, type: 2}
    m_RemovedComponents: []
  m_SourcePrefab: {fileID: 100100000, guid: 87775287766ddcd4fab2e3e3a85b379c, type: 3}
--- !u!1 &5834453551752308926 stripped
GameObject:
  m_CorrespondingSourceObject: {fileID: -927199367670048503, guid: 87775287766ddcd4fab2e3e3a85b379c,
    type: 3}
  m_PrefabInstance: {fileID: 2583317420327907767}
  m_PrefabAsset: {fileID: 0}
--- !u!4 &7395892792353921709 stripped
Transform:
  m_CorrespondingSourceObject: {fileID: -4216859302048453862, guid: 87775287766ddcd4fab2e3e3a85b379c,
    type: 3}
  m_PrefabInstance: {fileID: 2583317420327907767}
  m_PrefabAsset: {fileID: 0}
