%YAML 1.1
%TAG !u! tag:unity3d.com,2011:
--- !u!29 &1
OcclusionCullingSettings:
  m_ObjectHideFlags: 0
  serializedVersion: 2
  m_OcclusionBakeSettings:
    smallestOccluder: 5
    smallestHole: 0.25
    backfaceThreshold: 100
  m_SceneGUID: 00000000000000000000000000000000
  m_OcclusionCullingData: {fileID: 0}
--- !u!104 &2
RenderSettings:
  m_ObjectHideFlags: 0
  serializedVersion: 9
  m_Fog: 0
  m_FogColor: {r: 0.5, g: 0.5, b: 0.5, a: 1}
  m_FogMode: 3
  m_FogDensity: 0.01
  m_LinearFogStart: 0
  m_LinearFogEnd: 300
  m_AmbientSkyColor: {r: 0.212, g: 0.227, b: 0.259, a: 1}
  m_AmbientEquatorColor: {r: 0.114, g: 0.125, b: 0.133, a: 1}
  m_AmbientGroundColor: {r: 0.047, g: 0.043, b: 0.035, a: 1}
  m_AmbientIntensity: 1
  m_AmbientMode: 0
  m_SubtractiveShadowColor: {r: 0.42, g: 0.478, b: 0.627, a: 1}
  m_SkyboxMaterial: {fileID: 10304, guid: 0000000000000000f000000000000000, type: 0}
  m_HaloStrength: 0.5
  m_FlareStrength: 1
  m_FlareFadeSpeed: 3
  m_HaloTexture: {fileID: 0}
  m_SpotCookie: {fileID: 10001, guid: 0000000000000000e000000000000000, type: 0}
  m_DefaultReflectionMode: 0
  m_DefaultReflectionResolution: 128
  m_ReflectionBounces: 1
  m_ReflectionIntensity: 1
  m_CustomReflection: {fileID: 0}
  m_Sun: {fileID: 0}
  m_IndirectSpecularColor: {r: 0, g: 0, b: 0, a: 1}
  m_UseRadianceAmbientProbe: 0
--- !u!157 &3
LightmapSettings:
  m_ObjectHideFlags: 0
  serializedVersion: 11
  m_GIWorkflowMode: 0
  m_GISettings:
    serializedVersion: 2
    m_BounceScale: 1
    m_IndirectOutputScale: 1
    m_AlbedoBoost: 1
    m_EnvironmentLightingMode: 0
    m_EnableBakedLightmaps: 1
    m_EnableRealtimeLightmaps: 1
  m_LightmapEditorSettings:
    serializedVersion: 12
    m_Resolution: 2
    m_BakeResolution: 40
    m_AtlasSize: 1024
    m_AO: 0
    m_AOMaxDistance: 1
    m_CompAOExponent: 1
    m_CompAOExponentDirect: 0
    m_ExtractAmbientOcclusion: 0
    m_Padding: 2
    m_LightmapParameters: {fileID: 0}
    m_LightmapsBakeMode: 1
    m_TextureCompression: 1
    m_FinalGather: 0
    m_FinalGatherFiltering: 1
    m_FinalGatherRayCount: 256
    m_ReflectionCompression: 2
    m_MixedBakeMode: 1
    m_BakeBackend: 0
    m_PVRSampling: 1
    m_PVRDirectSampleCount: 32
    m_PVRSampleCount: 512
    m_PVRBounces: 2
    m_PVREnvironmentSampleCount: 512
    m_PVREnvironmentReferencePointCount: 2048
    m_PVRFilteringMode: 0
    m_PVRDenoiserTypeDirect: 0
    m_PVRDenoiserTypeIndirect: 0
    m_PVRDenoiserTypeAO: 0
    m_PVRFilterTypeDirect: 0
    m_PVRFilterTypeIndirect: 0
    m_PVRFilterTypeAO: 0
    m_PVREnvironmentMIS: 0
    m_PVRCulling: 1
    m_PVRFilteringGaussRadiusDirect: 1
    m_PVRFilteringGaussRadiusIndirect: 5
    m_PVRFilteringGaussRadiusAO: 2
    m_PVRFilteringAtrousPositionSigmaDirect: 0.5
    m_PVRFilteringAtrousPositionSigmaIndirect: 2
    m_PVRFilteringAtrousPositionSigmaAO: 1
    m_ExportTrainingData: 0
    m_TrainingDataDestination: TrainingData
  m_LightingDataAsset: {fileID: 0}
  m_UseShadowmask: 0
--- !u!196 &4
NavMeshSettings:
  serializedVersion: 2
  m_ObjectHideFlags: 0
  m_BuildSettings:
    serializedVersion: 2
    agentTypeID: 0
    agentRadius: 0.5
    agentHeight: 2
    agentSlope: 45
    agentClimb: 0.4
    ledgeDropHeight: 0
    maxJumpAcrossDistance: 0
    minRegionArea: 2
    manualCellSize: 0
    cellSize: 0.16666667
    manualTileSize: 0
    tileSize: 256
    accuratePlacement: 0
    debug:
      m_Flags: 0
  m_NavMeshData: {fileID: 0}
--- !u!1 &160125289
GameObject:
  m_ObjectHideFlags: 0
  m_CorrespondingSourceObject: {fileID: 0}
  m_PrefabInstance: {fileID: 0}
  m_PrefabAsset: {fileID: 0}
  serializedVersion: 6
  m_Component:
  - component: {fileID: 160125294}
  - component: {fileID: 160125293}
  - component: {fileID: 160125292}
  - component: {fileID: 160125291}
  - component: {fileID: 160125290}
  m_Layer: 0
  m_Name: Main Camera
  m_TagString: MainCamera
  m_Icon: {fileID: 0}
  m_NavMeshLayer: 0
  m_StaticEditorFlags: 0
  m_IsActive: 1
--- !u!81 &160125290
AudioListener:
  m_ObjectHideFlags: 0
  m_CorrespondingSourceObject: {fileID: 0}
  m_PrefabInstance: {fileID: 0}
  m_PrefabAsset: {fileID: 0}
  m_GameObject: {fileID: 160125289}
  m_Enabled: 1
--- !u!124 &160125291
Behaviour:
  m_ObjectHideFlags: 0
  m_CorrespondingSourceObject: {fileID: 0}
  m_PrefabInstance: {fileID: 0}
  m_PrefabAsset: {fileID: 0}
  m_GameObject: {fileID: 160125289}
  m_Enabled: 1
--- !u!92 &160125292
Behaviour:
  m_ObjectHideFlags: 0
  m_CorrespondingSourceObject: {fileID: 0}
  m_PrefabInstance: {fileID: 0}
  m_PrefabAsset: {fileID: 0}
  m_GameObject: {fileID: 160125289}
  m_Enabled: 1
--- !u!20 &160125293
Camera:
  m_ObjectHideFlags: 0
  m_CorrespondingSourceObject: {fileID: 0}
  m_PrefabInstance: {fileID: 0}
  m_PrefabAsset: {fileID: 0}
  m_GameObject: {fileID: 160125289}
  m_Enabled: 1
  serializedVersion: 2
  m_ClearFlags: 1
  m_BackGroundColor: {r: 0.19215687, g: 0.3019608, b: 0.4745098, a: 0}
  m_projectionMatrixMode: 1
  m_GateFitMode: 2
  m_FOVAxisMode: 0
  m_SensorSize: {x: 36, y: 24}
  m_LensShift: {x: 0, y: 0}
  m_FocalLength: 50
  m_NormalizedViewPortRect:
    serializedVersion: 2
    x: 0
    y: 0
    width: 1
    height: 1
  near clip plane: 0.3
  far clip plane: 1000
  field of view: 43.4
  orthographic: 0
  orthographic size: 5
  m_Depth: -1
  m_CullingMask:
    serializedVersion: 2
    m_Bits: 4294967295
  m_RenderingPath: -1
  m_TargetTexture: {fileID: 0}
  m_TargetDisplay: 0
  m_TargetEye: 3
  m_HDR: 0
  m_AllowMSAA: 1
  m_AllowDynamicResolution: 0
  m_ForceIntoRT: 0
  m_OcclusionCulling: 1
  m_StereoConvergence: 10
  m_StereoSeparation: 0.022
--- !u!4 &160125294
Transform:
  m_ObjectHideFlags: 0
  m_CorrespondingSourceObject: {fileID: 0}
  m_PrefabInstance: {fileID: 0}
  m_PrefabAsset: {fileID: 0}
  m_GameObject: {fileID: 160125289}
  m_LocalRotation: {x: -0, y: -0.99824053, z: -0, w: -0.059294496}
  m_LocalPosition: {x: 35.9, y: 44.6, z: 124.7}
  m_LocalScale: {x: 1, y: 1, z: 1}
  m_Children: []
  m_Father: {fileID: 0}
  m_RootOrder: 0
  m_LocalEulerAnglesHint: {x: 0, y: -186.611, z: 0}
--- !u!1001 &444248453
PrefabInstance:
  m_ObjectHideFlags: 0
  serializedVersion: 2
  m_Modification:
    m_TransformParent: {fileID: 0}
    m_Modifications:
    - target: {fileID: 400032, guid: 701d2c349eedd0743b96efd37d4c7736, type: 3}
      propertyPath: m_LocalScale.x
      value: 6.027417
      objectReference: {fileID: 0}
    - target: {fileID: 400032, guid: 701d2c349eedd0743b96efd37d4c7736, type: 3}
      propertyPath: m_LocalScale.y
      value: 6.0274196
      objectReference: {fileID: 0}
    - target: {fileID: 400032, guid: 701d2c349eedd0743b96efd37d4c7736, type: 3}
      propertyPath: m_LocalScale.z
      value: 1.6133374
      objectReference: {fileID: 0}
    - target: {fileID: 400032, guid: 701d2c349eedd0743b96efd37d4c7736, type: 3}
      propertyPath: m_LocalPosition.x
      value: 150
      objectReference: {fileID: 0}
    - target: {fileID: 400032, guid: 701d2c349eedd0743b96efd37d4c7736, type: 3}
      propertyPath: m_LocalPosition.z
      value: 466
      objectReference: {fileID: 0}
    - target: {fileID: 400128, guid: 701d2c349eedd0743b96efd37d4c7736, type: 3}
      propertyPath: m_LocalRotation.x
      value: 0.685347
      objectReference: {fileID: 0}
    - target: {fileID: 400128, guid: 701d2c349eedd0743b96efd37d4c7736, type: 3}
      propertyPath: m_LocalRotation.y
      value: 0.63645077
      objectReference: {fileID: 0}
    - target: {fileID: 400128, guid: 701d2c349eedd0743b96efd37d4c7736, type: 3}
      propertyPath: m_LocalRotation.z
      value: 0.30810794
      objectReference: {fileID: 0}
    - target: {fileID: 400128, guid: 701d2c349eedd0743b96efd37d4c7736, type: 3}
      propertyPath: m_LocalRotation.w
      value: 0.1740677
      objectReference: {fileID: 0}
    - target: {fileID: 400130, guid: 701d2c349eedd0743b96efd37d4c7736, type: 3}
      propertyPath: m_LocalRotation.x
      value: 0.685347
      objectReference: {fileID: 0}
    - target: {fileID: 400130, guid: 701d2c349eedd0743b96efd37d4c7736, type: 3}
      propertyPath: m_LocalRotation.y
      value: 0.63645077
      objectReference: {fileID: 0}
    - target: {fileID: 400130, guid: 701d2c349eedd0743b96efd37d4c7736, type: 3}
      propertyPath: m_LocalRotation.z
      value: 0.30810794
      objectReference: {fileID: 0}
    - target: {fileID: 400130, guid: 701d2c349eedd0743b96efd37d4c7736, type: 3}
      propertyPath: m_LocalRotation.w
      value: 0.1740677
      objectReference: {fileID: 0}
    - target: {fileID: 400194, guid: 701d2c349eedd0743b96efd37d4c7736, type: 3}
      propertyPath: m_LocalRotation.x
      value: 0.685347
      objectReference: {fileID: 0}
    - target: {fileID: 400194, guid: 701d2c349eedd0743b96efd37d4c7736, type: 3}
      propertyPath: m_LocalRotation.y
      value: 0.63645077
      objectReference: {fileID: 0}
    - target: {fileID: 400194, guid: 701d2c349eedd0743b96efd37d4c7736, type: 3}
      propertyPath: m_LocalRotation.z
      value: 0.30810788
      objectReference: {fileID: 0}
    - target: {fileID: 400194, guid: 701d2c349eedd0743b96efd37d4c7736, type: 3}
      propertyPath: m_LocalRotation.w
      value: 0.1740677
      objectReference: {fileID: 0}
    - target: {fileID: 400200, guid: 701d2c349eedd0743b96efd37d4c7736, type: 3}
      propertyPath: m_LocalRotation.x
      value: 0.685347
      objectReference: {fileID: 0}
    - target: {fileID: 400200, guid: 701d2c349eedd0743b96efd37d4c7736, type: 3}
      propertyPath: m_LocalRotation.y
      value: 0.63645077
      objectReference: {fileID: 0}
    - target: {fileID: 400200, guid: 701d2c349eedd0743b96efd37d4c7736, type: 3}
      propertyPath: m_LocalRotation.z
      value: 0.30810788
      objectReference: {fileID: 0}
    - target: {fileID: 400200, guid: 701d2c349eedd0743b96efd37d4c7736, type: 3}
      propertyPath: m_LocalRotation.w
      value: 0.1740677
      objectReference: {fileID: 0}
    - target: {fileID: 400212, guid: 701d2c349eedd0743b96efd37d4c7736, type: 3}
      propertyPath: m_LocalRotation.x
      value: 0.7019549
      objectReference: {fileID: 0}
    - target: {fileID: 400212, guid: 701d2c349eedd0743b96efd37d4c7736, type: 3}
      propertyPath: m_LocalRotation.y
      value: 0.678807
      objectReference: {fileID: 0}
    - target: {fileID: 400212, guid: 701d2c349eedd0743b96efd37d4c7736, type: 3}
      propertyPath: m_LocalRotation.z
      value: -0.1980432
      objectReference: {fileID: 0}
    - target: {fileID: 400212, guid: 701d2c349eedd0743b96efd37d4c7736, type: 3}
      propertyPath: m_LocalRotation.w
      value: 0.08520199
      objectReference: {fileID: 0}
    - target: {fileID: 400214, guid: 701d2c349eedd0743b96efd37d4c7736, type: 3}
      propertyPath: m_LocalRotation.x
      value: 0.7019549
      objectReference: {fileID: 0}
    - target: {fileID: 400214, guid: 701d2c349eedd0743b96efd37d4c7736, type: 3}
      propertyPath: m_LocalRotation.y
      value: 0.678807
      objectReference: {fileID: 0}
    - target: {fileID: 400214, guid: 701d2c349eedd0743b96efd37d4c7736, type: 3}
      propertyPath: m_LocalRotation.z
      value: -0.1980432
      objectReference: {fileID: 0}
    - target: {fileID: 400214, guid: 701d2c349eedd0743b96efd37d4c7736, type: 3}
      propertyPath: m_LocalRotation.w
      value: 0.08520199
      objectReference: {fileID: 0}
    - target: {fileID: 400216, guid: 701d2c349eedd0743b96efd37d4c7736, type: 3}
      propertyPath: m_LocalRotation.x
      value: 0.7005784
      objectReference: {fileID: 0}
    - target: {fileID: 400216, guid: 701d2c349eedd0743b96efd37d4c7736, type: 3}
      propertyPath: m_LocalRotation.y
      value: 0.6802117
      objectReference: {fileID: 0}
    - target: {fileID: 400216, guid: 701d2c349eedd0743b96efd37d4c7736, type: 3}
      propertyPath: m_LocalRotation.z
      value: -0.19316335
      objectReference: {fileID: 0}
    - target: {fileID: 400216, guid: 701d2c349eedd0743b96efd37d4c7736, type: 3}
      propertyPath: m_LocalRotation.w
      value: 0.095864296
      objectReference: {fileID: 0}
    - target: {fileID: 400290, guid: 701d2c349eedd0743b96efd37d4c7736, type: 3}
      propertyPath: m_LocalRotation.x
      value: 0.6003122
      objectReference: {fileID: 0}
    - target: {fileID: 400290, guid: 701d2c349eedd0743b96efd37d4c7736, type: 3}
      propertyPath: m_LocalRotation.y
      value: -0.5170747
      objectReference: {fileID: 0}
    - target: {fileID: 400290, guid: 701d2c349eedd0743b96efd37d4c7736, type: 3}
      propertyPath: m_LocalRotation.z
      value: 0.52929956
      objectReference: {fileID: 0}
    - target: {fileID: 400290, guid: 701d2c349eedd0743b96efd37d4c7736, type: 3}
      propertyPath: m_LocalRotation.w
      value: -0.30348176
      objectReference: {fileID: 0}
    - target: {fileID: 400358, guid: 701d2c349eedd0743b96efd37d4c7736, type: 3}
      propertyPath: m_LocalRotation.x
      value: 0.6949171
      objectReference: {fileID: 0}
    - target: {fileID: 400358, guid: 701d2c349eedd0743b96efd37d4c7736, type: 3}
      propertyPath: m_LocalRotation.y
      value: 0.11579164
      objectReference: {fileID: 0}
    - target: {fileID: 400358, guid: 701d2c349eedd0743b96efd37d4c7736, type: 3}
      propertyPath: m_LocalRotation.z
      value: 0.7003441
      objectReference: {fileID: 0}
    - target: {fileID: 400358, guid: 701d2c349eedd0743b96efd37d4c7736, type: 3}
      propertyPath: m_LocalRotation.w
      value: -0.114894345
      objectReference: {fileID: 0}
    - target: {fileID: 400360, guid: 701d2c349eedd0743b96efd37d4c7736, type: 3}
      propertyPath: m_LocalRotation.x
      value: 0.6949171
      objectReference: {fileID: 0}
    - target: {fileID: 400360, guid: 701d2c349eedd0743b96efd37d4c7736, type: 3}
      propertyPath: m_LocalRotation.y
      value: 0.11579164
      objectReference: {fileID: 0}
    - target: {fileID: 400360, guid: 701d2c349eedd0743b96efd37d4c7736, type: 3}
      propertyPath: m_LocalRotation.z
      value: 0.7003441
      objectReference: {fileID: 0}
    - target: {fileID: 400360, guid: 701d2c349eedd0743b96efd37d4c7736, type: 3}
      propertyPath: m_LocalRotation.w
      value: -0.114894345
      objectReference: {fileID: 0}
    - target: {fileID: 400408, guid: 701d2c349eedd0743b96efd37d4c7736, type: 3}
      propertyPath: m_LocalRotation.x
      value: 0.73568636
      objectReference: {fileID: 0}
    - target: {fileID: 400408, guid: 701d2c349eedd0743b96efd37d4c7736, type: 3}
      propertyPath: m_LocalRotation.y
      value: 0.15397666
      objectReference: {fileID: 0}
    - target: {fileID: 400408, guid: 701d2c349eedd0743b96efd37d4c7736, type: 3}
      propertyPath: m_LocalRotation.z
      value: 0.6350072
      objectReference: {fileID: 0}
    - target: {fileID: 400408, guid: 701d2c349eedd0743b96efd37d4c7736, type: 3}
      propertyPath: m_LocalRotation.w
      value: -0.17838936
      objectReference: {fileID: 0}
    - target: {fileID: 400446, guid: 701d2c349eedd0743b96efd37d4c7736, type: 3}
      propertyPath: m_LocalRotation.x
      value: 0.65331054
      objectReference: {fileID: 0}
    - target: {fileID: 400446, guid: 701d2c349eedd0743b96efd37d4c7736, type: 3}
      propertyPath: m_LocalRotation.y
      value: 0.7017935
      objectReference: {fileID: 0}
    - target: {fileID: 400446, guid: 701d2c349eedd0743b96efd37d4c7736, type: 3}
      propertyPath: m_LocalRotation.z
      value: -0.08652177
      objectReference: {fileID: 0}
    - target: {fileID: 400446, guid: 701d2c349eedd0743b96efd37d4c7736, type: 3}
      propertyPath: m_LocalRotation.w
      value: -0.27052805
      objectReference: {fileID: 0}
    - target: {fileID: 400514, guid: 701d2c349eedd0743b96efd37d4c7736, type: 3}
      propertyPath: m_LocalRotation.x
      value: 0.7012962
      objectReference: {fileID: 0}
    - target: {fileID: 400514, guid: 701d2c349eedd0743b96efd37d4c7736, type: 3}
      propertyPath: m_LocalRotation.y
      value: 0.65691614
      objectReference: {fileID: 0}
    - target: {fileID: 400514, guid: 701d2c349eedd0743b96efd37d4c7736, type: 3}
      propertyPath: m_LocalRotation.z
      value: -0.26165128
      objectReference: {fileID: 0}
    - target: {fileID: 400514, guid: 701d2c349eedd0743b96efd37d4c7736, type: 3}
      propertyPath: m_LocalRotation.w
      value: 0.09046316
      objectReference: {fileID: 0}
    - target: {fileID: 400520, guid: 701d2c349eedd0743b96efd37d4c7736, type: 3}
      propertyPath: m_LocalRotation.x
      value: 0.7012962
      objectReference: {fileID: 0}
    - target: {fileID: 400520, guid: 701d2c349eedd0743b96efd37d4c7736, type: 3}
      propertyPath: m_LocalRotation.y
      value: 0.65691614
      objectReference: {fileID: 0}
    - target: {fileID: 400520, guid: 701d2c349eedd0743b96efd37d4c7736, type: 3}
      propertyPath: m_LocalRotation.z
      value: -0.26165128
      objectReference: {fileID: 0}
    - target: {fileID: 400520, guid: 701d2c349eedd0743b96efd37d4c7736, type: 3}
      propertyPath: m_LocalRotation.w
      value: 0.09046316
      objectReference: {fileID: 0}
    - target: {fileID: 400964, guid: 701d2c349eedd0743b96efd37d4c7736, type: 3}
      propertyPath: m_LocalRotation.x
      value: -0.19408996
      objectReference: {fileID: 0}
    - target: {fileID: 400964, guid: 701d2c349eedd0743b96efd37d4c7736, type: 3}
      propertyPath: m_LocalRotation.y
      value: -0.58426857
      objectReference: {fileID: 0}
    - target: {fileID: 400964, guid: 701d2c349eedd0743b96efd37d4c7736, type: 3}
      propertyPath: m_LocalRotation.z
      value: -0.5840652
      objectReference: {fileID: 0}
    - target: {fileID: 400964, guid: 701d2c349eedd0743b96efd37d4c7736, type: 3}
      propertyPath: m_LocalRotation.w
      value: 0.5289871
      objectReference: {fileID: 0}
    - target: {fileID: 401000, guid: 701d2c349eedd0743b96efd37d4c7736, type: 3}
      propertyPath: m_LocalRotation.x
      value: -0.63508135
      objectReference: {fileID: 0}
    - target: {fileID: 401000, guid: 701d2c349eedd0743b96efd37d4c7736, type: 3}
      propertyPath: m_LocalRotation.y
      value: 0.6820637
      objectReference: {fileID: 0}
    - target: {fileID: 401000, guid: 701d2c349eedd0743b96efd37d4c7736, type: 3}
      propertyPath: m_LocalRotation.z
      value: 0.35889027
      objectReference: {fileID: 0}
    - target: {fileID: 401000, guid: 701d2c349eedd0743b96efd37d4c7736, type: 3}
      propertyPath: m_LocalRotation.w
      value: 0.051563054
      objectReference: {fileID: 0}
    - target: {fileID: 401146, guid: 701d2c349eedd0743b96efd37d4c7736, type: 3}
      propertyPath: m_LocalRotation.x
      value: -0.5254999
      objectReference: {fileID: 0}
    - target: {fileID: 401146, guid: 701d2c349eedd0743b96efd37d4c7736, type: 3}
      propertyPath: m_LocalRotation.y
      value: 0.77420944
      objectReference: {fileID: 0}
    - target: {fileID: 401146, guid: 701d2c349eedd0743b96efd37d4c7736, type: 3}
      propertyPath: m_LocalRotation.z
      value: 0.26538655
      objectReference: {fileID: 0}
    - target: {fileID: 401146, guid: 701d2c349eedd0743b96efd37d4c7736, type: 3}
      propertyPath: m_LocalRotation.w
      value: -0.23242152
      objectReference: {fileID: 0}
    - target: {fileID: 401282, guid: 701d2c349eedd0743b96efd37d4c7736, type: 3}
      propertyPath: m_LocalRotation.x
      value: -0.5326022
      objectReference: {fileID: 0}
    - target: {fileID: 401282, guid: 701d2c349eedd0743b96efd37d4c7736, type: 3}
      propertyPath: m_LocalRotation.y
      value: 0.6476755
      objectReference: {fileID: 0}
    - target: {fileID: 401282, guid: 701d2c349eedd0743b96efd37d4c7736, type: 3}
      propertyPath: m_LocalRotation.z
      value: 0.5268318
      objectReference: {fileID: 0}
    - target: {fileID: 401282, guid: 701d2c349eedd0743b96efd37d4c7736, type: 3}
      propertyPath: m_LocalRotation.w
      value: -0.13892382
      objectReference: {fileID: 0}
    - target: {fileID: 401284, guid: 701d2c349eedd0743b96efd37d4c7736, type: 3}
      propertyPath: m_LocalRotation.x
      value: -0.5326022
      objectReference: {fileID: 0}
    - target: {fileID: 401284, guid: 701d2c349eedd0743b96efd37d4c7736, type: 3}
      propertyPath: m_LocalRotation.y
      value: 0.6476755
      objectReference: {fileID: 0}
    - target: {fileID: 401284, guid: 701d2c349eedd0743b96efd37d4c7736, type: 3}
      propertyPath: m_LocalRotation.z
      value: 0.5268318
      objectReference: {fileID: 0}
    - target: {fileID: 401284, guid: 701d2c349eedd0743b96efd37d4c7736, type: 3}
      propertyPath: m_LocalRotation.w
      value: -0.13892382
      objectReference: {fileID: 0}
    - target: {fileID: 401300, guid: 701d2c349eedd0743b96efd37d4c7736, type: 3}
      propertyPath: m_LocalRotation.x
      value: -0.5628036
      objectReference: {fileID: 0}
    - target: {fileID: 401300, guid: 701d2c349eedd0743b96efd37d4c7736, type: 3}
      propertyPath: m_LocalRotation.y
      value: 0.74021846
      objectReference: {fileID: 0}
    - target: {fileID: 401300, guid: 701d2c349eedd0743b96efd37d4c7736, type: 3}
      propertyPath: m_LocalRotation.z
      value: 0.3349386
      objectReference: {fileID: 0}
    - target: {fileID: 401300, guid: 701d2c349eedd0743b96efd37d4c7736, type: 3}
      propertyPath: m_LocalRotation.w
      value: -0.15213473
      objectReference: {fileID: 0}
    - target: {fileID: 401528, guid: 701d2c349eedd0743b96efd37d4c7736, type: 3}
      propertyPath: m_LocalRotation.x
      value: -0.04632301
      objectReference: {fileID: 0}
    - target: {fileID: 401528, guid: 701d2c349eedd0743b96efd37d4c7736, type: 3}
      propertyPath: m_LocalRotation.y
      value: -0.7620298
      objectReference: {fileID: 0}
    - target: {fileID: 401528, guid: 701d2c349eedd0743b96efd37d4c7736, type: 3}
      propertyPath: m_LocalRotation.z
      value: -0.29853922
      objectReference: {fileID: 0}
    - target: {fileID: 401528, guid: 701d2c349eedd0743b96efd37d4c7736, type: 3}
      propertyPath: m_LocalRotation.w
      value: 0.572747
      objectReference: {fileID: 0}
    - target: {fileID: 401560, guid: 701d2c349eedd0743b96efd37d4c7736, type: 3}
      propertyPath: m_LocalPosition.x
      value: 466.3
      objectReference: {fileID: 0}
    - target: {fileID: 401560, guid: 701d2c349eedd0743b96efd37d4c7736, type: 3}
      propertyPath: m_LocalPosition.z
      value: -41.8
      objectReference: {fileID: 0}
    - target: {fileID: 401574, guid: 701d2c349eedd0743b96efd37d4c7736, type: 3}
      propertyPath: m_LocalRotation.x
      value: 0.03751958
      objectReference: {fileID: 0}
    - target: {fileID: 401574, guid: 701d2c349eedd0743b96efd37d4c7736, type: 3}
      propertyPath: m_LocalRotation.y
      value: 0.57884735
      objectReference: {fileID: 0}
    - target: {fileID: 401574, guid: 701d2c349eedd0743b96efd37d4c7736, type: 3}
      propertyPath: m_LocalRotation.z
      value: 0.80748653
      objectReference: {fileID: 0}
    - target: {fileID: 401574, guid: 701d2c349eedd0743b96efd37d4c7736, type: 3}
      propertyPath: m_LocalRotation.w
      value: -0.10720837
      objectReference: {fileID: 0}
    - target: {fileID: 401574, guid: 701d2c349eedd0743b96efd37d4c7736, type: 3}
      propertyPath: m_LocalPosition.x
      value: 242.8
      objectReference: {fileID: 0}
    - target: {fileID: 401574, guid: 701d2c349eedd0743b96efd37d4c7736, type: 3}
      propertyPath: m_LocalPosition.y
      value: 361.41614
      objectReference: {fileID: 0}
    - target: {fileID: 401574, guid: 701d2c349eedd0743b96efd37d4c7736, type: 3}
      propertyPath: m_LocalPosition.z
      value: 103.7
      objectReference: {fileID: 0}
    - target: {fileID: 401574, guid: 701d2c349eedd0743b96efd37d4c7736, type: 3}
      propertyPath: m_LocalEulerAnglesHint.x
      value: -70.51601
      objectReference: {fileID: 0}
    - target: {fileID: 401574, guid: 701d2c349eedd0743b96efd37d4c7736, type: 3}
      propertyPath: m_LocalEulerAnglesHint.y
      value: -10.721001
      objectReference: {fileID: 0}
    - target: {fileID: 401574, guid: 701d2c349eedd0743b96efd37d4c7736, type: 3}
      propertyPath: m_LocalEulerAnglesHint.z
      value: -157.317
      objectReference: {fileID: 0}
    - target: {fileID: 401574, guid: 701d2c349eedd0743b96efd37d4c7736, type: 3}
      propertyPath: m_LocalScale.x
      value: 0.3919343
      objectReference: {fileID: 0}
    - target: {fileID: 401574, guid: 701d2c349eedd0743b96efd37d4c7736, type: 3}
      propertyPath: m_LocalScale.y
      value: 0.3919344
      objectReference: {fileID: 0}
    - target: {fileID: 401574, guid: 701d2c349eedd0743b96efd37d4c7736, type: 3}
      propertyPath: m_LocalScale.z
      value: 0.3919344
      objectReference: {fileID: 0}
    - target: {fileID: 401576, guid: 701d2c349eedd0743b96efd37d4c7736, type: 3}
      propertyPath: m_LocalPosition.x
      value: 224.7
      objectReference: {fileID: 0}
    - target: {fileID: 401576, guid: 701d2c349eedd0743b96efd37d4c7736, type: 3}
      propertyPath: m_LocalPosition.z
      value: 51
      objectReference: {fileID: 0}
    - target: {fileID: 401576, guid: 701d2c349eedd0743b96efd37d4c7736, type: 3}
      propertyPath: m_LocalPosition.y
      value: 387.5
      objectReference: {fileID: 0}
    - target: {fileID: 401578, guid: 701d2c349eedd0743b96efd37d4c7736, type: 3}
      propertyPath: m_LocalScale.x
      value: 0.56588143
      objectReference: {fileID: 0}
    - target: {fileID: 401578, guid: 701d2c349eedd0743b96efd37d4c7736, type: 3}
      propertyPath: m_LocalScale.y
      value: 0.40314126
      objectReference: {fileID: 0}
    - target: {fileID: 401578, guid: 701d2c349eedd0743b96efd37d4c7736, type: 3}
      propertyPath: m_LocalScale.z
      value: 0.40314126
      objectReference: {fileID: 0}
    - target: {fileID: 401578, guid: 701d2c349eedd0743b96efd37d4c7736, type: 3}
      propertyPath: m_LocalPosition.z
      value: 43.5
      objectReference: {fileID: 0}
    - target: {fileID: 401578, guid: 701d2c349eedd0743b96efd37d4c7736, type: 3}
      propertyPath: m_LocalPosition.x
      value: 225.8
      objectReference: {fileID: 0}
    - target: {fileID: 401578, guid: 701d2c349eedd0743b96efd37d4c7736, type: 3}
      propertyPath: m_LocalPosition.y
      value: 315
      objectReference: {fileID: 0}
    - target: {fileID: 401620, guid: 701d2c349eedd0743b96efd37d4c7736, type: 3}
      propertyPath: m_LocalPosition.x
      value: 0
      objectReference: {fileID: 0}
    - target: {fileID: 401620, guid: 701d2c349eedd0743b96efd37d4c7736, type: 3}
      propertyPath: m_LocalPosition.y
      value: 0
      objectReference: {fileID: 0}
    - target: {fileID: 401620, guid: 701d2c349eedd0743b96efd37d4c7736, type: 3}
      propertyPath: m_LocalPosition.z
      value: 0
      objectReference: {fileID: 0}
    - target: {fileID: 401620, guid: 701d2c349eedd0743b96efd37d4c7736, type: 3}
      propertyPath: m_LocalRotation.x
      value: 0
      objectReference: {fileID: 0}
    - target: {fileID: 401620, guid: 701d2c349eedd0743b96efd37d4c7736, type: 3}
      propertyPath: m_LocalRotation.y
      value: 0
      objectReference: {fileID: 0}
    - target: {fileID: 401620, guid: 701d2c349eedd0743b96efd37d4c7736, type: 3}
      propertyPath: m_LocalRotation.z
      value: 0
      objectReference: {fileID: 0}
    - target: {fileID: 401620, guid: 701d2c349eedd0743b96efd37d4c7736, type: 3}
      propertyPath: m_LocalRotation.w
      value: 1
      objectReference: {fileID: 0}
    - target: {fileID: 401620, guid: 701d2c349eedd0743b96efd37d4c7736, type: 3}
      propertyPath: m_RootOrder
      value: 2
      objectReference: {fileID: 0}
    - target: {fileID: 401620, guid: 701d2c349eedd0743b96efd37d4c7736, type: 3}
      propertyPath: m_LocalScale.x
      value: 0.17073011
      objectReference: {fileID: 0}
    - target: {fileID: 401620, guid: 701d2c349eedd0743b96efd37d4c7736, type: 3}
      propertyPath: m_LocalScale.y
      value: 0.17073017
      objectReference: {fileID: 0}
    - target: {fileID: 401620, guid: 701d2c349eedd0743b96efd37d4c7736, type: 3}
      propertyPath: m_LocalScale.z
      value: 0.17073017
      objectReference: {fileID: 0}
    m_RemovedComponents: []
  m_SourcePrefab: {fileID: 100100000, guid: 701d2c349eedd0743b96efd37d4c7736, type: 3}
--- !u!1 &1548836500
GameObject:
  m_ObjectHideFlags: 0
  m_CorrespondingSourceObject: {fileID: 0}
  m_PrefabInstance: {fileID: 0}
  m_PrefabAsset: {fileID: 0}
  serializedVersion: 6
  m_Component:
  - component: {fileID: 1548836502}
  - component: {fileID: 1548836501}
  m_Layer: 0
  m_Name: Directional Light
  m_TagString: Untagged
  m_Icon: {fileID: 0}
  m_NavMeshLayer: 0
  m_StaticEditorFlags: 0
  m_IsActive: 1
--- !u!108 &1548836501
Light:
  m_ObjectHideFlags: 0
  m_CorrespondingSourceObject: {fileID: 0}
  m_PrefabInstance: {fileID: 0}
  m_PrefabAsset: {fileID: 0}
  m_GameObject: {fileID: 1548836500}
  m_Enabled: 1
  serializedVersion: 9
  m_Type: 1
  m_Color: {r: 1, g: 0.95686275, b: 0.8392157, a: 1}
  m_Intensity: 1
  m_Range: 10
  m_SpotAngle: 30
  m_InnerSpotAngle: 21.80208
  m_CookieSize: 10
  m_Shadows:
    m_Type: 2
    m_Resolution: -1
    m_CustomResolution: -1
    m_Strength: 1
    m_Bias: 0.05
    m_NormalBias: 0.4
    m_NearPlane: 0.2
    m_CullingMatrixOverride:
      e00: 1
      e01: 0
      e02: 0
      e03: 0
      e10: 0
      e11: 1
      e12: 0
      e13: 0
      e20: 0
      e21: 0
      e22: 1
      e23: 0
      e30: 0
      e31: 0
      e32: 0
      e33: 1
    m_UseCullingMatrixOverride: 0
  m_Cookie: {fileID: 0}
  m_DrawHalo: 0
  m_Flare: {fileID: 0}
  m_RenderMode: 0
  m_CullingMask:
    serializedVersion: 2
    m_Bits: 4294967295
  m_RenderingLayerMask: 1
  m_Lightmapping: 4
  m_LightShadowCasterMode: 0
  m_AreaSize: {x: 1, y: 1}
  m_BounceIntensity: 1
  m_ColorTemperature: 6570
  m_UseColorTemperature: 0
  m_BoundingSphereOverride: {x: 0, y: 0, z: 0, w: 0}
  m_UseBoundingSphereOverride: 0
  m_ShadowRadius: 0
  m_ShadowAngle: 0
--- !u!4 &1548836502
Transform:
  m_ObjectHideFlags: 0
  m_CorrespondingSourceObject: {fileID: 0}
  m_PrefabInstance: {fileID: 0}
  m_PrefabAsset: {fileID: 0}
  m_GameObject: {fileID: 1548836500}
  m_LocalRotation: {x: 0.40821788, y: -0.23456968, z: 0.10938163, w: 0.8754261}
  m_LocalPosition: {x: 0, y: 3, z: 0}
  m_LocalScale: {x: 1, y: 1, z: 1}
  m_Children: []
  m_Father: {fileID: 0}
  m_RootOrder: 1
  m_LocalEulerAnglesHint: {x: 50, y: -30, z: 0}
